{
   "abstract" : "A traverse() method for the Graph module.",
   "author" : [
      "William Lindley <wlindley@wlindley.com>"
   ],
   "dynamic_config" : 0,
   "generated_by" : "Dist::Milla version v1.0.20, Dist::Zilla version 6.012, CPAN::Meta::Converter version 2.150010",
   "license" : [
      "perl_5"
   ],
   "meta-spec" : {
      "url" : "http://search.cpan.org/perldoc?CPAN::Meta::Spec",
      "version" : 2
   },
   "name" : "Graph-Traverse",
   "no_index" : {
      "directory" : [
         "eg",
         "examples",
         "inc",
         "share",
         "t",
         "xt"
      ]
   },
   "prereqs" : {
      "configure" : {
         "requires" : {
            "Module::Build::Tiny" : "0.034"
         }
      },
      "develop" : {
         "requires" : {
            "Dist::Milla" : "v1.0.20",
            "Test::Pod" : "1.41"
         }
      },
      "runtime" : {
         "requires" : {
            "Graph" : "0.9704",
            "perl" : "5.014"
         }
      },
      "test" : {
         "requires" : {
            "Test::More" : "0.96"
         }
      }
   },
   "release_status" : "stable",
   "version" : "0.04",
   "x_generated_by_perl" : "v5.30.0",
   "x_serialization_backend" : "Cpanel::JSON::XS version 4.11",
   "x_static_install" : 1
}

